\relax 
\providecommand\hyper@newdestlabel[2]{}
\providecommand\HyperFirstAtBeginDocument{\AtBeginDocument}
\HyperFirstAtBeginDocument{\ifx\hyper@anchor\@undefined
\global\let\oldcontentsline\contentsline
\gdef\contentsline#1#2#3#4{\oldcontentsline{#1}{#2}{#3}}
\global\let\oldnewlabel\newlabel
\gdef\newlabel#1#2{\newlabelxx{#1}#2}
\gdef\newlabelxx#1#2#3#4#5#6{\oldnewlabel{#1}{{#2}{#3}}}
\AtEndDocument{\ifx\hyper@anchor\@undefined
\let\contentsline\oldcontentsline
\let\newlabel\oldnewlabel
\fi}
\fi}
\global\let\hyper@last\relax 
\gdef\HyperFirstAtBeginDocument#1{#1}
\providecommand*\HyPL@Entry[1]{}
\citation{Cosentino2015}
\citation{Constantinou2017}
\HyPL@Entry{0<</S/D>>}
\@writefile{toc}{\contentsline {section}{\numberline {1}Introduction}{1}{section.1}\protected@file@percent }
\newlabel{sec:intro}{{1}{1}{Introduction}{section.1}{}}
\citation{newman2010}
\citation{Sedano2016}
\citation{Lin2017,Sedano2016,Zahedi2016,Rashid2019,Nassif2017,Rigby2016}
\@writefile{lot}{\contentsline {table}{\numberline {1}{\ignorespaces List of notations used in this paper\relax }}{2}{table.caption.1}\protected@file@percent }
\providecommand*\caption@xref[2]{\@setref\relax\@undefined{#1}}
\newlabel{table:Notations}{{1}{2}{List of notations used in this paper\relax }{table.caption.1}{}}
\@writefile{toc}{\contentsline {section}{\numberline {2}Related Work}{2}{section.2}\protected@file@percent }
\newlabel{sec:Related}{{2}{2}{Related Work}{section.2}{}}
\citation{Rashid2019}
\citation{Sedano2016}
\citation{Sedano2016}
\citation{Beck2000}
\citation{Sedano2016}
\citation{Sedano2016}
\citation{Rashid2019}
\citation{Schilling2012}
\citation{Foucault2015}
\citation{Rigby2016}
\citation{Lin2017}
\citation{Robles2006}
\citation{LeGoues2019}
\@writefile{toc}{\contentsline {subsection}{\numberline {2.1}Open Source Software}{3}{subsection.2.1}\protected@file@percent }
\@writefile{toc}{\contentsline {subsection}{\numberline {2.2}Sustainable Software Development}{3}{subsection.2.2}\protected@file@percent }
\newlabel{subsec:sustainable}{{2.2}{3}{Sustainable Software Development}{subsection.2.2}{}}
\@writefile{toc}{\contentsline {subsection}{\numberline {2.3}Developer Turnover phenomenon}{3}{subsection.2.3}\protected@file@percent }
\newlabel{sec:dev turnover}{{2.3}{3}{Developer Turnover phenomenon}{subsection.2.3}{}}
\@writefile{toc}{\contentsline {subsection}{\numberline {2.4}Task Assignment}{3}{subsection.2.4}\protected@file@percent }
\citation{Boehm1991}
\citation{Rashid2019}
\citation{Rashid2019}
\citation{Robles2006}
\citation{Rashid2018}
\citation{newman2010}
\@writefile{toc}{\contentsline {subsection}{\numberline {2.5}Self-Adaptive Design}{4}{subsection.2.5}\protected@file@percent }
\newlabel{sec:slef-adaptive}{{2.5}{4}{Self-Adaptive Design}{subsection.2.5}{}}
\@writefile{toc}{\contentsline {subsection}{\numberline {2.6}Risk Management in Software Development}{4}{subsection.2.6}\protected@file@percent }
\@writefile{toc}{\contentsline {subsection}{\numberline {2.7}Knowledge Diffusion}{4}{subsection.2.7}\protected@file@percent }
\citation{Rashid2019}
\citation{Lam2000}
\citation{Rashid2019a}
\citation{Rashid2019}
\citation{Rashid2019}
\citation{Pan1998}
\@writefile{toc}{\contentsline {section}{\numberline {3}Problem Statement}{6}{section.3}\protected@file@percent }
\@writefile{toc}{\contentsline {section}{\numberline {4}SATA: Self-Adaptive Task Assignment}{6}{section.4}\protected@file@percent }
\newlabel{sec:proposedMethod}{{4}{6}{SATA: Self-Adaptive Task Assignment}{section.4}{}}
\@writefile{lof}{\contentsline {figure}{\numberline {1}{\ignorespaces Illustration the self-adaptive task assignment system using Hidden Markov Model. All the arrows among the states get labeled with an specific probability. Observations, depicted by fat arrows, are linked to the states through emission probabilities\relax }}{7}{figure.caption.2}\protected@file@percent }
\newlabel{fig:hmm-model}{{1}{7}{Illustration the self-adaptive task assignment system using Hidden Markov Model. All the arrows among the states get labeled with an specific probability. Observations, depicted by fat arrows, are linked to the states through emission probabilities\relax }{figure.caption.2}{}}
\@writefile{lot}{\contentsline {table}{\numberline {2}{\ignorespaces List of observations associated to the hidden Markov model\relax }}{7}{table.caption.3}\protected@file@percent }
\newlabel{tbl:hmm}{{2}{7}{List of observations associated to the hidden Markov model\relax }{table.caption.3}{}}
\newlabel{eq:policyFunc}{{4}{7}{SATA: Self-Adaptive Task Assignment}{table.caption.3}{}}
\@writefile{toc}{\contentsline {section}{\numberline {5}Organization of The Study}{8}{section.5}\protected@file@percent }
\@writefile{toc}{\contentsline {subsection}{\numberline {5.1}Data-Set Description}{8}{subsection.5.1}\protected@file@percent }
\citation{ref to type of creating model}
\@writefile{lof}{\contentsline {figure}{\numberline {2}{\ignorespaces A candidate chromosome for sample batch of tasks\relax }}{9}{figure.caption.4}\protected@file@percent }
\newlabel{fig:chromosome}{{2}{9}{A candidate chromosome for sample batch of tasks\relax }{figure.caption.4}{}}
\@writefile{toc}{\contentsline {subsection}{\numberline {5.2}HMM Initialization: Model Parameter Assignment}{9}{subsection.5.2}\protected@file@percent }
\citation{Viterbi1967}
\@writefile{lot}{\contentsline {table}{\numberline {3}{\ignorespaces Ranges of values for each parameter\relax }}{10}{table.caption.5}\protected@file@percent }
\newlabel{tbl:variables}{{3}{10}{Ranges of values for each parameter\relax }{table.caption.5}{}}
\@writefile{toc}{\contentsline {subsection}{\numberline {5.3}Decoding Observations Towards Discovering Hidden State: Using Viterbi Algorithm}{10}{subsection.5.3}\protected@file@percent }
\newlabel{subsec:decoding}{{5.3}{10}{Decoding Observations Towards Discovering Hidden State: Using Viterbi Algorithm}{subsection.5.3}{}}
\@writefile{toc}{\contentsline {section}{\numberline {6}Evaluation: Static vs. Self-Adaptive Task Assignment}{10}{section.6}\protected@file@percent }
\newlabel{sec:eval}{{6}{10}{Evaluation: Static vs. Self-Adaptive Task Assignment}{section.6}{}}
\citation{Avelino2016}
\@writefile{lof}{\contentsline {figure}{\numberline {3}{\ignorespaces The process of decoding observation\relax }}{11}{figure.caption.6}\protected@file@percent }
\newlabel{fig:poissonBlackbox}{{3}{11}{The process of decoding observation\relax }{figure.caption.6}{}}
\citation{Rashid2019}
\bibdata{library}
\bibcite{Avelino2016}{1}
\bibcite{Boehm1991}{2}
\bibcite{Constantinou2017}{3}
\bibcite{Cosentino2015}{4}
\@writefile{lof}{\contentsline {figure}{\numberline {4}{\ignorespaces Evaluation process of all candidate environments\relax }}{12}{figure.caption.7}\protected@file@percent }
\newlabel{fig:evaluationProcess}{{4}{12}{Evaluation process of all candidate environments\relax }{figure.caption.7}{}}
\@writefile{lot}{\contentsline {table}{\numberline {4}{\ignorespaces The set-up parameters for genetic-based heuristic\relax }}{12}{table.caption.8}\protected@file@percent }
\@writefile{lot}{\contentsline {table}{\numberline {5}{\ignorespaces The worst and best case associated to the JDT and Platform project after fixed number of round assignment\relax }}{12}{table.caption.9}\protected@file@percent }
\newlabel{tbl:worstBest}{{5}{12}{The worst and best case associated to the JDT and Platform project after fixed number of round assignment\relax }{table.caption.9}{}}
\@writefile{toc}{\contentsline {subsection}{\numberline {6.1}Knowledge Retention Checklist}{12}{subsection.6.1}\protected@file@percent }
\@writefile{toc}{\contentsline {section}{\numberline {7}Discussion}{12}{section.7}\protected@file@percent }
\@writefile{toc}{\contentsline {section}{\numberline {8}Conclusion}{12}{section.8}\protected@file@percent }
\bibcite{Pan1998}{5}
\bibcite{Foucault2015}{6}
\bibcite{Lam2000}{7}
\bibcite{LeGoues2019}{8}
\@writefile{lof}{\contentsline {figure}{\numberline {5}{\ignorespaces Cost over time for JDT project\relax }}{13}{figure.caption.10}\protected@file@percent }
\newlabel{fig:cot_jdt}{{5}{13}{Cost over time for JDT project\relax }{figure.caption.10}{}}
\@writefile{lof}{\contentsline {figure}{\numberline {6}{\ignorespaces Information diffusion over time for JDT\relax }}{13}{figure.caption.11}\protected@file@percent }
\newlabel{fig:idot_jdt}{{6}{13}{Information diffusion over time for JDT\relax }{figure.caption.11}{}}
\bibcite{Lin2017}{9}
\bibcite{Nassif2017}{10}
\bibcite{newman2010}{11}
\bibcite{Rashid2019a}{12}
\bibcite{Rashid2019}{13}
\bibcite{Rashid2018}{14}
\@writefile{lof}{\contentsline {figure}{\numberline {7}{\ignorespaces Cost over time for Platform project\relax }}{14}{figure.caption.12}\protected@file@percent }
\newlabel{fig:cot_plt}{{7}{14}{Cost over time for Platform project\relax }{figure.caption.12}{}}
\@writefile{lof}{\contentsline {figure}{\numberline {8}{\ignorespaces Information diffusion over time for Platform\relax }}{14}{figure.caption.13}\protected@file@percent }
\newlabel{fig:idot_plt}{{8}{14}{Information diffusion over time for Platform\relax }{figure.caption.13}{}}
\bibcite{Rigby2016}{15}
\bibcite{Robles2006}{16}
\bibcite{Schilling2012}{17}
\bibcite{Sedano2016}{18}
\bibcite{Viterbi1967}{19}
\bibcite{Zahedi2016}{20}
\bibstyle{plain}
\@writefile{lot}{\contentsline {table}{\numberline {6}{\ignorespaces The list to check how the proposed method addresses the aspects of having a general knowledge retention plan\relax }}{15}{table.caption.14}\protected@file@percent }
